digraph KarabasOrderStates {
    #rankdir=LR;
    size="10"
    node [shape = circle];
    Reserved [label="Временный\nрезерв\n(15 минут)"];
    ReservationConfirmed [label="Резерв"];
    Paid [label="Оплачен"];
    Sending [label="Доставляется"];
    Canceled [label="Отменен"];
	Reserved -> ReservationConfirmed [label = "Подтверждение\nрезерва"];
	ReservationConfirmed -> Paid [label = "Подтверждение\nоплаты"];
	ReservationConfirmed -> Sending [label = "Отправка\nв доставку"];
	Sending -> Paid [label = "Подтверждение\nоплаты"];
	Sending -> Canceled [label = "Отмена"];
	Reserved -> Canceled [label = "Отмена"];
}
